2021 Federal Election
…
simulated_data <-
  tibble(
    # Use 1 through to 338 to represent each riding
    "riding" = 1:338,
    # Randomly pick an option, with replacement, 338 times
    "Party" = sample(
      x = c("Liberal", "Conservative", "Bloc Québécois", "New Democratic", "Green", "Other"),
      size = 338,
      replace = TRUE
    )
  )

simulated_data

# A tibble: 338 × 2
   riding Party         
    <int> <chr>         
 1      1 Other         
 2      2 Conservative  
 3      3 Green         
 4      4 Conservative  
 5      5 Conservative  
 6      6 Other         
 7      7 Green         
 8      8 Liberal       
 9      9 Other         
10     10 New Democratic
# ℹ 328 more rows
…
